Date and Time
…
We can create date-time objects too:

ymd_hms("2017-01-31 20:11:59")
## [1] "2017-01-31 20:11:59 UTC"
mdy_hm("01/31/2017 08:01")
## [1] "2017-01-31 08:01:00 UTC"
ymd(x, tz = "UTC")
## [1] "2009-01-02 UTC"

Combining columns

library(nycflights13)
flights %>% select(year, month, day, hour, minute)
## # A tibble: 336,776 x 5
##     year month   day  hour minute
##    <int> <int> <int> <dbl>  <dbl>
##  1  2013     1     1     5     15
##  2  2013     1     1     5     29
##  3  2013     1     1     5     40
##  4  2013     1     1     5     45
##  5  2013     1     1     6      0
##  6  2013     1     1     5     58
##  7  2013     1     1     6      0
##  8  2013     1     1     6      0
##  9  2013     1     1     6      0
## 10  2013     1     1     6      0
## #  with 336,766 more rows

Combining columns

flights %>% 
  select(year, month, day, hour, minute) %>% 
  mutate(departure = make_datetime(year, month, day, hour, minute))
## # A tibble: 336,776 x 6
##     year month   day  hour minute departure          
##    <int> <int> <int> <dbl>  <dbl> <dttm>             
##  1  2013     1     1     5     15 2013-01-01 05:15:00
##  2  2013     1     1     5     29 2013-01-01 05:29:00
##  3  2013     1     1     5     40 2013-01-01 05:40:00
##  4  2013     1     1     5     45 2013-01-01 05:45:00
##  5  2013     1     1     6      0 2013-01-01 06:00:00
##  6  2013     1     1     5     58 2013-01-01 05:58:00
##  7  2013     1     1     6      0 2013-01-01 06:00:00
##  8  2013     1     1     6      0 2013-01-01 06:00:00
##  9  2013     1     1     6      0 2013-01-01 06:00:00
## 10  2013     1     1     6      0 2013-01-01 06:00:00
## #  with 336,766 more rows

Converting columns

flights %>% select(arr_time, dep_time)
## # A tibble: 336,776 x 2
##    arr_time dep_time
##       <int>    <int>
##  1      830      517
##  2      850      533
##  3      923      542
##  4     1004      544
##  5      812      554
##  6      740      554
##  7      913      555
##  8      709      557
##  9      838      557
## 10      753      558
## #  with 336,766 more rows
…
Flights example

flights_dt %>% 
  filter(arr_time < dep_time) %>%
  select(dep_time, arr_time)
## # A tibble: 10,633 x 2
##    dep_time            arr_time           
##    <dttm>              <dttm>             
##  1 2013-01-01 19:29:00 2013-01-01 00:03:00
##  2 2013-01-01 19:39:00 2013-01-01 00:29:00
##  3 2013-01-01 20:58:00 2013-01-01 00:08:00
##  4 2013-01-01 21:02:00 2013-01-01 01:46:00
##  5 2013-01-01 21:08:00 2013-01-01 00:25:00
##  6 2013-01-01 21:20:00 2013-01-01 00:16:00
##  7 2013-01-01 21:21:00 2013-01-01 00:06:00
##  8 2013-01-01 21:28:00 2013-01-01 00:26:00
##  9 2013-01-01 21:34:00 2013-01-01 00:20:00
## 10 2013-01-01 21:36:00 2013-01-01 00:25:00
## #  with 10,623 more rows
…
